…
La solution

Puisque ggplotly ne fonctionnait pas, j’ai donc dû trouver une solution détournée de faire ce que je voulais.

Je vous présente donc, pour ceux qui ne la connaisse pas encore, une fonction bien pratique de ggplot2: ggplot_build.
Cette fonction, prend un objet ggplot et retourne toutes les informations nécessaires au rendu de cet objet, c’est à dire toutes les données actuellement représentées (une par layer, qui peuvent être différentes des données d’origine) et des informations sur les axes…

Voyons quelles sont les données retournées pour notre dendrogramme circulaire:

ggplot_build(circular_dendro)$data %>%
  # transforme en tibble pour garder un affichage compact
  map(as_tibble)

## [[1]]
## # A tibble: 11,000 x 23
##    PANEL       x        y group  index  xend   yend circular edge_colour
##    <fct>   <dbl>    <dbl> <int>  <dbl> <dbl>  <dbl> <lgl>    <chr>      
##  1 1     0.       0.          1 0      0.332 -0.374 TRUE     grey       
##  2 1     1.01e-4 -1.14e-4     1 0.0101 0.332 -0.374 TRUE     grey       
##  3 1     4.01e-4 -4.52e-4     1 0.0202 0.332 -0.374 TRUE     grey       
##  4 1     8.96e-4 -1.01e-3     1 0.0303 0.332 -0.374 TRUE     grey       
##  5 1     1.58e-3 -1.78e-3     1 0.0404 0.332 -0.374 TRUE     grey       
##  6 1     2.45e-3 -2.77e-3     1 0.0505 0.332 -0.374 TRUE     grey       
##  7 1     3.51e-3 -3.95e-3     1 0.0606 0.332 -0.374 TRUE     grey       
##  8 1     4.74e-3 -5.35e-3     1 0.0707 0.332 -0.374 TRUE     grey       
##  9 1     6.15e-3 -6.93e-3     1 0.0808 0.332 -0.374 TRUE     grey       
## 10 1     7.73e-3 -8.71e-3     1 0.0909 0.332 -0.374 TRUE     grey       
## # ... with 10,990 more rows, and 14 more variables: edge_width <dbl>,
## #   edge_linetype <chr>, edge_alpha <lgl>, start_cap <lgl>, end_cap <lgl>,
## #   label <lgl>, label_pos <dbl>, label_size <dbl>, angle <dbl>, hjust <dbl>,
## #   vjust <dbl>, family <chr>, fontface <dbl>, lineheight <dbl>
## 
## [[2]]
## # A tibble: 111 x 11
##          x      y text   PANEL group shape colour  size fill  alpha stroke
##      <dbl>  <dbl> <chr>  <fct> <int> <dbl> <chr>  <dbl> <lgl> <lgl>  <dbl>
##  1  0       0     origin 1        11    19 grey     1.5 NA    NA       0.5
##  2  0.332  -0.374 group1 1         1    19 grey     1.5 NA    NA       0.5
##  3  0.0486 -0.498 group2 1         3    19 grey     1.5 NA    NA       0.5
##  4 -0.253  -0.431 group3 1         4    19 grey     1.5 NA    NA       0.5
##  5 -0.458  -0.200 group4 1         5    19 grey     1.5 NA    NA       0.5
##  6 -0.488   0.108 group5 1         6    19 grey     1.5 NA    NA       0.5
##  7 -0.332   0.374 group6 1         7    19 grey     1.5 NA    NA       0.5
##  8 -0.0486  0.498 group7 1         8    19 grey     1.5 NA    NA       0.5
##  9  0.253   0.431 group8 1         9    19 grey     1.5 NA    NA       0.5
## 10  0.458   0.200 group9 1        10    19 grey     1.5 NA    NA       0.5
## # ... with 101 more rows
…
